{
  "index": "/index.html",
  "assetGroups": [
    {
      "name": "dmhy",
      "installMode": "prefetch",
      "updateMode": "prefetch",
      "resources": {
        "files": [
          "/",
          "/favicon.ico",
          "/*.css",
          "/*.js",
          "/*.json",
          "/*.eot",
          "/*.svg",
          "/*.ttf",
          "/*.woff",
          "/*.woff2"
        ]
      }
    },
    {
      "name": "assets",
      "installMode": "lazy",
      "updateMode": "prefetch",
      "resources": {
        "files": [
          "/assets/**"
        ]
      }
    }
  ]
}